<?xml version="1.0" encoding="UTF-8"?>
<svg xmlns="http://www.w3.org/2000/svg" xmlns:xlink="http://www.w3.org/1999/xlink" width="932pt" height="145pt" viewBox="0 0 932 145" version="1.1">
<defs>
<linearGradient id="linear0" gradientUnits="userSpaceOnUse" x1="0.147916" y1="0.264312" x2="0.870383" y2="0.70472" gradientTransform="matrix(234.679687,0,0,141.515625,697.296875,0.804687)">
<stop offset="0.16" style="stop-color:rgb(54.509804%,73.72549%,94.509804%);stop-opacity:1;"/>
<stop offset="0.63" style="stop-color:rgb(31.372549%,34.509804%,86.666667%);stop-opacity:1;"/>
</linearGradient>
<filter id="alpha" filterUnits="objectBoundingBox" x="0%" y="0%" width="100%" height="100%">
  <feColorMatrix type="matrix" in="SourceGraphic" values="0 0 0 0 1 0 0 0 0 1 0 0 0 0 1 0 0 0 1 0"/>
</filter>
<mask id="mask0">
  <g filter="url(#alpha)">
<rect x="0" y="0" width="932" height="145" style="fill:rgb(0%,0%,0%);fill-opacity:0.34902;stroke:none;"/>
  </g>
</mask>
<linearGradient id="linear1" gradientUnits="userSpaceOnUse" x1="0.640112" y1="0.940271" x2="0.274887" y2="-0.249998" gradientTransform="matrix(13.808594,0,0,27.617187,835.347656,38.769531)">
<stop offset="0.11" style="stop-color:rgb(0%,0%,0%);stop-opacity:1;"/>
<stop offset="0.56" style="stop-color:rgb(100%,100%,100%);stop-opacity:0;"/>
</linearGradient>
<clipPath id="clip1">
  <rect x="0" y="0" width="932" height="145"/>
</clipPath>
<g id="surface5" clip-path="url(#clip1)">
<path style=" stroke:none;fill-rule:nonzero;fill:url(#linear1);" d="M 839.046875 66.386719 C 839.046875 66.386719 843.058594 61.472656 844.941406 58.832031 C 845.933594 57.519531 849.15625 53.15625 849.15625 53.15625 L 845.988281 38.769531 L 835.347656 50.90625 C 836.152344 54.171875 838.261719 62.980469 839.046875 66.386719 Z M 839.046875 66.386719 "/>
</g>
<mask id="mask1">
  <g filter="url(#alpha)">
<rect x="0" y="0" width="932" height="145" style="fill:rgb(0%,0%,0%);fill-opacity:0.34902;stroke:none;"/>
  </g>
</mask>
<linearGradient id="linear2" gradientUnits="userSpaceOnUse" x1="0.284983" y1="0.0197909" x2="0.790452" y2="1.138976" gradientTransform="matrix(13.808594,0,0,20.714844,842.25,69.839844)">
<stop offset="0.23" style="stop-color:rgb(0%,0%,0%);stop-opacity:1;"/>
<stop offset="0.58" style="stop-color:rgb(100%,100%,100%);stop-opacity:0;"/>
</linearGradient>
<clipPath id="clip2">
  <rect x="0" y="0" width="932" height="145"/>
</clipPath>
<g id="surface8" clip-path="url(#clip2)">
<path style=" stroke:none;fill-rule:nonzero;fill:url(#linear2);" d="M 853.464844 69.839844 C 853.464844 69.839844 850.40625 73.117188 847.8125 75.554688 C 846.792969 76.503906 842.25 80.933594 842.25 80.933594 C 843.195312 84.355469 844.105469 87.3125 844.9375 90.554688 L 856.058594 78.851562 C 855.113281 75.644531 854.355469 73.066406 853.464844 69.839844 Z M 853.464844 69.839844 "/>
</g>
<mask id="mask2">
  <g filter="url(#alpha)">
<rect x="0" y="0" width="932" height="145" style="fill:rgb(0%,0%,0%);fill-opacity:0.4;stroke:none;"/>
  </g>
</mask>
<linearGradient id="linear3" gradientUnits="userSpaceOnUse" x1="0.661918" y1="0.221585" x2="0.312151" y2="0.835721" gradientTransform="matrix(13.804688,0,0,20.714844,776.667969,69.839844)">
<stop offset="0.24" style="stop-color:rgb(0%,0%,0%);stop-opacity:1;"/>
<stop offset="0.74" style="stop-color:rgb(100%,100%,100%);stop-opacity:0;"/>
</linearGradient>
<clipPath id="clip3">
  <rect x="0" y="0" width="932" height="145"/>
</clipPath>
<g id="surface11" clip-path="url(#clip3)">
<path style=" stroke:none;fill-rule:nonzero;fill:url(#linear3);" d="M 776.667969 79.316406 L 788.261719 90.554688 C 788.992188 87.707031 789.742188 84.835938 790.472656 81.949219 L 784.742188 76.011719 C 782.753906 74.035156 779.121094 69.839844 779.121094 69.839844 C 778.296875 73.003906 777.492188 76.070312 776.667969 79.316406 Z M 776.667969 79.316406 "/>
</g>
<mask id="mask3">
  <g filter="url(#alpha)">
<rect x="0" y="0" width="932" height="145" style="fill:rgb(0%,0%,0%);fill-opacity:0.4;stroke:none;"/>
  </g>
</mask>
<linearGradient id="linear4" gradientUnits="userSpaceOnUse" x1="0.220685" y1="0.889223" x2="0.857794" y2="-0.0149428" gradientTransform="matrix(13.808594,0,0,20.710937,783.570313,42.222656)">
<stop offset="0.25" style="stop-color:rgb(0%,0%,0%);stop-opacity:1;"/>
<stop offset="0.63" style="stop-color:rgb(100%,100%,100%);stop-opacity:0;"/>
</linearGradient>
<clipPath id="clip4">
  <rect x="0" y="0" width="932" height="145"/>
</clipPath>
<g id="surface14" clip-path="url(#clip4)">
<path style=" stroke:none;fill-rule:nonzero;fill:url(#linear4);" d="M 797.378906 53.101562 L 786.066406 42.222656 C 785.339844 44.769531 784.410156 48.003906 783.570312 50.976562 C 783.570312 50.976562 785.640625 53.402344 788.5625 56.601562 C 792.589844 60.988281 794.5625 62.933594 794.5625 62.933594 Z M 797.378906 53.101562 "/>
</g>
</defs>
<g id="surface1">
<path style=" stroke:none;fill-rule:nonzero;fill:url(#linear0);" d="M 775.96875 78.539062 C 770.761719 97.277344 765.6875 115.507812 764.164062 120.734375 C 763.203125 124.300781 760.457031 127.152344 756.875 128.308594 C 752.78125 129.558594 748.171875 128.308594 743.855469 124.910156 C 740.453125 122.1875 733.089844 109.625 723.589844 83.148438 C 715.871094 61.6875 711.335938 44.019531 711.09375 39.773438 C 710.851562 35.523438 711.390625 27.0625 732.589844 27.0625 C 734.449219 27.0625 739.117188 28.421875 748.839844 37.484375 C 756.875 45.054688 766.503906 55.894531 778.40625 69.804688 C 777.605469 72.710938 776.789062 75.632812 775.96875 78.539062 Z M 896.425781 13.605469 C 883.929688 13.605469 870.765625 25.628906 846.21875 53.878906 C 845.347656 50.703125 840.808594 32.925781 840.640625 32.089844 L 838.914062 25.191406 C 836.828125 17.65625 833.648438 5.726562 817.660156 2.003906 C 815.425781 1.355469 813.125 0.953125 810.796875 0.804688 L 790.957031 0.804688 C 790.691406 0.789062 790.421875 0.789062 790.15625 0.804688 L 783.425781 0.804688 C 780.636719 0.761719 778.191406 2.609375 777.53125 5.253906 C 776.777344 7.863281 777.953125 10.636719 780.375 11.953125 C 782.625 13.386719 784.527344 15.277344 785.953125 17.492188 C 788.265625 21.039062 789.507812 25.148438 789.542969 29.351562 C 789.433594 29.984375 789.339844 30.367188 789.320312 30.457031 C 789.152344 31.109375 787.589844 36.738281 785.324219 44.984375 C 784.558594 47.707031 783.722656 50.703125 782.851562 53.878906 C 758.304688 25.628906 745.140625 13.625 732.699219 13.605469 C 719.183594 13.605469 709.328125 16.75 703.433594 23.050781 C 699.226562 27.683594 697.023438 33.730469 697.296875 39.917969 L 697.296875 40.191406 C 697.613281 47.90625 704.382812 70.402344 710.574219 87.632812 C 719.980469 113.816406 728.257812 129.886719 735.15625 135.40625 C 743.09375 141.742188 752.539062 143.867188 761.1875 141.234375 C 769.242188 138.710938 775.445312 132.386719 777.679688 124.421875 C 779.019531 119.792969 783.128906 105.082031 787.648438 88.851562 C 788.371094 86.253906 789.097656 83.621094 789.824219 80.988281 C 797.667969 87.726562 806.558594 93.316406 814.644531 93.335938 C 822.699219 93.335938 831.625 87.726562 839.46875 80.988281 C 840.195312 83.621094 840.921875 86.253906 841.644531 88.851562 C 846.164062 105.082031 850.273438 119.71875 851.613281 124.421875 C 853.847656 132.386719 860.050781 138.710938 868.105469 141.234375 C 876.675781 143.867188 886.125 141.742188 894.136719 135.40625 C 901.035156 129.960938 909.3125 113.816406 918.71875 87.632812 C 924.910156 70.402344 931.734375 47.90625 931.976562 40.191406 C 931.988281 40.097656 931.988281 40.007812 931.976562 39.917969 C 932.25 33.730469 930.050781 27.683594 925.839844 23.050781 C 919.929688 16.75 910.089844 13.570312 896.554688 13.605469 Z M 850.664062 69.804688 C 862.5625 55.878906 872.175781 45.039062 880.210938 37.558594 C 889.933594 28.476562 894.566406 27.132812 896.460938 27.132812 C 917.660156 27.132812 917.9375 35.542969 917.957031 39.84375 C 917.976562 44.148438 913.179688 61.761719 905.460938 83.222656 C 895.960938 109.695312 888.597656 122.261719 885.195312 124.984375 C 880.898438 128.417969 876.285156 129.632812 872.175781 128.378906 C 868.59375 127.222656 865.847656 124.375 864.886719 120.808594 C 863.363281 115.578125 858.289062 97.347656 853.082031 78.609375 C 852.28125 75.632812 851.464844 72.710938 850.664062 69.804688 Z M 827.625 38.609375 C 828.722656 42.566406 830.433594 48.777344 832.476562 56.113281 C 833.351562 59.273438 834.335938 62.648438 835.269531 66.15625 C 824.425781 76.777344 817.25 79.773438 814.535156 79.773438 C 811.820312 79.773438 804.640625 76.777344 793.800781 66.15625 C 794.769531 62.648438 795.660156 59.273438 796.589844 56.113281 C 798.636719 48.851562 800.308594 42.566406 801.445312 38.609375 L 801.59375 38.066406 C 802.300781 35.558594 802.707031 34.070312 802.726562 33.960938 C 804.234375 27.496094 804.042969 20.761719 802.167969 14.386719 L 810.332031 14.386719 C 811.410156 14.386719 819.945312 15.242188 823.03125 21.832031 L 826.75 35.46875 Z M 827.625 38.609375 "/>
<use xlink:href="#surface5" mask="url(#mask0)"/>
<use xlink:href="#surface8" mask="url(#mask1)"/>
<use xlink:href="#surface11" mask="url(#mask2)"/>
<use xlink:href="#surface14" mask="url(#mask3)"/>
<path style=" stroke:none;fill-rule:nonzero;fill:rgb(8.627451%,6.27451%,21.960784%);fill-opacity:1;" d="M 23.230469 118.019531 L 11.164062 118.019531 L 8.53125 125.078125 L 3.453125 125.078125 L 14.484375 97.457031 L 20.035156 97.457031 L 31.066406 125.078125 L 25.824219 125.078125 Z M 12.832031 113.765625 L 21.414062 113.765625 L 17.152344 102.507812 Z M 12.832031 113.765625 "/>
<path style=" stroke:none;fill-rule:nonzero;fill:rgb(8.627451%,6.27451%,21.960784%);fill-opacity:1;" d="M 44.960938 97.457031 C 50.839844 97.457031 54.265625 100.574219 54.265625 104.890625 C 54.34375 107.550781 52.519531 109.957031 49.742188 110.851562 C 53.042969 111.625 55.316406 114.355469 55.226562 117.433594 C 55.226562 121.875 51.425781 125.078125 45.726562 125.078125 L 34.519531 125.078125 L 34.519531 97.457031 Z M 44.3125 109.226562 C 45.542969 109.375 46.78125 109.035156 47.707031 108.292969 C 48.636719 107.554688 49.164062 106.484375 49.152344 105.367188 C 49.152344 103.03125 47.351562 101.511719 44.195312 101.511719 L 39.554688 101.511719 L 39.554688 109.226562 Z M 44.882812 121.183594 C 47.996094 121.183594 50.015625 119.664062 50.015625 117.222656 C 50.054688 116.058594 49.527344 114.941406 48.574219 114.160156 C 47.621094 113.382812 46.335938 113.019531 45.058594 113.171875 L 39.554688 113.171875 L 39.554688 121.183594 Z M 44.882812 121.183594 "/>
<path style=" stroke:none;fill-rule:nonzero;fill:rgb(8.627451%,6.27451%,21.960784%);fill-opacity:1;" d="M 62.152344 115.066406 L 62.152344 97.457031 L 66.808594 97.457031 L 66.808594 114.769531 C 66.808594 118.578125 68.957031 120.671875 72.472656 120.671875 C 75.988281 120.671875 78.15625 118.578125 78.15625 114.769531 L 78.15625 97.457031 L 82.84375 97.457031 L 82.84375 115.066406 C 82.84375 121.574219 78.316406 125.054688 72.472656 125.054688 C 69.691406 125.25 66.960938 124.261719 64.980469 122.347656 C 63.003906 120.433594 61.972656 117.777344 62.152344 115.066406 Z M 62.152344 115.066406 "/>
<path style=" stroke:none;fill-rule:nonzero;fill:rgb(8.627451%,6.27451%,21.960784%);fill-opacity:1;" d="M 100.105469 125.078125 L 100.105469 97.457031 L 110.292969 97.457031 C 118.105469 97.457031 124.265625 102.4375 124.265625 111.292969 C 124.265625 120.152344 118.015625 125.078125 110.292969 125.078125 Z M 110.070312 120.808594 C 115.054688 120.808594 119.171875 117.738281 119.171875 111.367188 C 119.171875 104.996094 115.089844 101.800781 110.105469 101.800781 L 104.976562 101.800781 L 104.976562 120.738281 Z M 110.070312 120.808594 "/>
<path style=" stroke:none;fill-rule:nonzero;fill:rgb(8.627451%,6.27451%,21.960784%);fill-opacity:1;" d="M 150.230469 125.078125 L 150.230469 113.234375 L 136.21875 113.234375 L 136.21875 125.078125 L 131.171875 125.078125 L 131.171875 97.457031 L 136.21875 97.457031 L 136.21875 108.84375 L 150.230469 108.84375 L 150.230469 97.457031 L 155.332031 97.457031 L 155.332031 125.078125 Z M 150.230469 125.078125 "/>
<path style=" stroke:none;fill-rule:nonzero;fill:rgb(8.627451%,6.27451%,21.960784%);fill-opacity:1;" d="M 178.410156 118 L 166.429688 118 L 163.886719 125.078125 L 158.785156 125.078125 L 169.804688 97.457031 L 175.363281 97.457031 L 186.398438 125.078125 L 181.171875 125.078125 Z M 168.097656 113.664062 L 176.742188 113.664062 L 172.421875 102.378906 Z M 168.097656 113.664062 "/>
<path style=" stroke:none;fill-rule:nonzero;fill:rgb(8.627451%,6.27451%,21.960784%);fill-opacity:1;" d="M 203.824219 97.457031 C 209.65625 97.457031 213.078125 100.574219 213.078125 104.890625 C 213.15625 107.550781 211.34375 109.957031 208.585938 110.851562 C 211.859375 111.628906 214.113281 114.359375 214.011719 117.433594 C 214.011719 121.875 210.257812 125.078125 204.601562 125.078125 L 193.304688 125.078125 L 193.304688 97.457031 Z M 203.140625 109.136719 C 204.359375 109.285156 205.589844 108.945312 206.511719 108.207031 C 207.433594 107.464844 207.957031 106.398438 207.945312 105.277344 C 207.945312 102.945312 206.136719 101.421875 203.007812 101.421875 L 198.476562 101.421875 L 198.476562 109.226562 Z M 203.707031 121.097656 C 206.777344 121.097656 208.800781 119.574219 208.800781 117.132812 C 208.835938 115.96875 208.304688 114.851562 207.355469 114.074219 C 206.40625 113.292969 205.128906 112.929688 203.863281 113.082031 L 198.476562 113.082031 L 198.476562 121.097656 Z M 203.707031 121.097656 "/>
<path style=" stroke:none;fill-rule:nonzero;fill:rgb(8.627451%,6.27451%,21.960784%);fill-opacity:1;" d="M 217.464844 125.078125 L 217.464844 97.457031 L 224.371094 97.457031 L 224.371094 125.078125 Z M 217.464844 125.078125 "/>
<path style=" stroke:none;fill-rule:nonzero;fill:rgb(8.627451%,6.27451%,21.960784%);fill-opacity:1;" d="M 245.082031 125.078125 L 245.082031 97.457031 L 255.265625 97.457031 C 263.09375 97.457031 269.246094 102.4375 269.246094 111.292969 C 269.246094 120.152344 263 125.078125 255.230469 125.078125 Z M 255.0625 120.808594 C 260.054688 120.808594 264.179688 117.738281 264.179688 111.367188 C 264.179688 104.996094 260.089844 101.800781 255.101562 101.800781 L 249.945312 101.800781 L 249.945312 120.738281 Z M 255.0625 120.808594 "/>
<path style=" stroke:none;fill-rule:nonzero;fill:rgb(8.627451%,6.27451%,21.960784%);fill-opacity:1;" d="M 272.695312 125.078125 L 272.695312 97.457031 L 279.601562 97.457031 L 279.601562 125.078125 Z M 272.695312 125.078125 "/>
<path style=" stroke:none;fill-rule:nonzero;fill:rgb(8.627451%,6.27451%,21.960784%);fill-opacity:1;" d="M 306.582031 124.535156 L 306.210938 121.152344 C 304.207031 123.78125 300.839844 125.261719 297.332031 125.058594 C 289.773438 125.058594 283.070312 119.984375 283.070312 111.277344 C 282.871094 107.652344 284.324219 104.113281 287.089844 101.5 C 289.855469 98.886719 293.683594 97.429688 297.667969 97.476562 C 303.488281 97.195312 308.800781 100.480469 310.667969 105.507812 L 306.0625 107.117188 C 304.96875 103.71875 301.472656 101.445312 297.59375 101.601562 C 292.894531 101.601562 287.972656 104.664062 287.972656 111.207031 C 287.972656 117.753906 292.558594 120.898438 297.554688 120.898438 C 301.609375 121.246094 305.253906 118.648438 305.855469 114.980469 L 296.273438 114.980469 L 296.273438 111.089844 L 310.460938 111.089844 L 310.460938 124.535156 Z M 306.582031 124.535156 "/>
<path style=" stroke:none;fill-rule:nonzero;fill:rgb(8.627451%,6.27451%,21.960784%);fill-opacity:1;" d="M 317.570312 125.078125 L 317.570312 97.457031 L 324.472656 97.457031 L 324.472656 125.078125 Z M 317.570312 125.078125 "/>
<path style=" stroke:none;fill-rule:nonzero;fill:rgb(8.627451%,6.27451%,21.960784%);fill-opacity:1;" d="M 342.472656 101.835938 L 342.472656 125.078125 L 337.484375 125.078125 L 337.484375 101.835938 L 327.925781 101.835938 L 327.925781 97.457031 L 352.089844 97.457031 L 352.089844 101.835938 Z M 342.472656 101.835938 "/>
<path style=" stroke:none;fill-rule:nonzero;fill:rgb(8.627451%,6.27451%,21.960784%);fill-opacity:1;" d="M 371.765625 118 L 359.773438 118 L 357.164062 125.078125 L 352.089844 125.078125 L 363.105469 97.457031 L 368.652344 97.457031 L 379.703125 125.078125 L 374.46875 125.078125 Z M 361.476562 113.664062 L 370.082031 113.664062 L 365.789062 102.378906 Z M 361.476562 113.664062 "/>
<path style=" stroke:none;fill-rule:nonzero;fill:rgb(8.627451%,6.27451%,21.960784%);fill-opacity:1;" d="M 383.15625 125.078125 L 383.15625 97.457031 L 387.804688 97.457031 L 387.804688 120.578125 L 400.414062 120.578125 L 400.414062 125.078125 Z M 383.15625 125.078125 "/>
<path style=" stroke:none;fill-rule:nonzero;fill:rgb(8.627451%,6.27451%,21.960784%);fill-opacity:1;" d="M 433.875 118 L 421.929688 118 L 419.289062 125.078125 L 414.222656 125.078125 L 425.226562 97.457031 L 430.761719 97.457031 L 441.835938 125.078125 L 436.605469 125.078125 Z M 423.597656 113.664062 L 432.191406 113.664062 L 427.902344 102.378906 Z M 423.597656 113.664062 "/>
<path style=" stroke:none;fill-rule:nonzero;fill:rgb(8.627451%,6.27451%,21.960784%);fill-opacity:1;" d="M 445.289062 115.082031 L 445.289062 97.457031 L 449.949219 97.457031 L 449.949219 114.785156 C 449.949219 118.597656 452.105469 120.695312 455.625 120.695312 C 459.148438 120.695312 461.300781 118.632812 461.300781 114.820312 L 461.300781 97.492188 L 466 97.492188 L 466 115.082031 C 466 121.59375 461.460938 125.078125 455.625 125.078125 C 449.789062 125.078125 445.289062 121.59375 445.289062 115.082031 Z M 445.289062 115.082031 "/>
<path style=" stroke:none;fill-rule:nonzero;fill:rgb(8.627451%,6.27451%,21.960784%);fill-opacity:1;" d="M 487.554688 101.835938 L 487.554688 125.078125 L 482.53125 125.078125 L 482.53125 101.835938 L 472.902344 101.835938 L 472.902344 97.457031 L 497.066406 97.457031 L 497.066406 101.835938 Z M 487.554688 101.835938 "/>
<path style=" stroke:none;fill-rule:nonzero;fill:rgb(8.627451%,6.27451%,21.960784%);fill-opacity:1;" d="M 523.042969 125.078125 L 523.042969 113.234375 L 509.019531 113.234375 L 509.019531 125.078125 L 503.96875 125.078125 L 503.96875 97.457031 L 509.019531 97.457031 L 509.019531 108.84375 L 523.042969 108.84375 L 523.042969 97.457031 L 528.132812 97.457031 L 528.132812 125.078125 Z M 523.042969 125.078125 "/>
<path style=" stroke:none;fill-rule:nonzero;fill:rgb(8.627451%,6.27451%,21.960784%);fill-opacity:1;" d="M 548.730469 97.460938 C 552.484375 97.378906 556.101562 98.808594 558.734375 101.40625 C 561.367188 104 562.78125 107.539062 562.640625 111.183594 C 562.820312 116.089844 560.230469 120.695312 555.890625 123.199219 C 551.546875 125.703125 546.144531 125.703125 541.800781 123.199219 C 537.457031 120.695312 534.867188 116.089844 535.046875 111.183594 C 534.898438 107.578125 536.28125 104.066406 538.867188 101.472656 C 541.453125 98.882812 545.015625 97.433594 548.730469 97.460938 Z M 548.730469 120.714844 C 553.339844 120.714844 557.859375 117.554688 557.859375 111.183594 C 557.859375 104.8125 553.339844 101.652344 548.730469 101.652344 C 544.125 101.652344 539.671875 104.832031 539.671875 111.183594 C 539.671875 117.539062 544.125 120.75 548.730469 120.75 Z M 548.730469 120.714844 "/>
<path style=" stroke:none;fill-rule:nonzero;fill:rgb(8.627451%,6.27451%,21.960784%);fill-opacity:1;" d="M 578.214844 114.125 L 574.523438 114.125 L 574.523438 125.078125 L 569.554688 125.078125 L 569.554688 97.472656 L 580.976562 97.472656 C 583.429688 97.335938 585.835938 98.160156 587.605469 99.746094 C 589.371094 101.332031 590.335938 103.539062 590.261719 105.816406 C 590.382812 109.59375 587.558594 112.90625 583.5625 113.667969 L 590.148438 125.078125 L 584.4375 125.078125 Z M 579.929688 110.015625 C 581.695312 110.226562 583.433594 109.472656 584.386719 108.082031 C 585.34375 106.6875 585.34375 104.910156 584.386719 103.519531 C 583.433594 102.125 581.695312 101.371094 579.929688 101.582031 L 574.523438 101.582031 L 574.523438 110.015625 Z M 579.929688 110.015625 "/>
<path style=" stroke:none;fill-rule:nonzero;fill:rgb(8.627451%,6.27451%,21.960784%);fill-opacity:1;" d="M 593.71875 125.078125 L 593.71875 97.457031 L 600.621094 97.457031 L 600.621094 125.078125 Z M 593.71875 125.078125 "/>
<path style=" stroke:none;fill-rule:nonzero;fill:rgb(8.627451%,6.27451%,21.960784%);fill-opacity:1;" d="M 618.628906 101.835938 L 618.628906 125.078125 L 613.644531 125.078125 L 613.644531 101.835938 L 604.074219 101.835938 L 604.074219 97.457031 L 628.238281 97.457031 L 628.238281 101.835938 Z M 618.628906 101.835938 "/>
<path style=" stroke:none;fill-rule:nonzero;fill:rgb(8.627451%,6.27451%,21.960784%);fill-opacity:1;" d="M 628.238281 97.457031 L 634.574219 97.457031 L 642.144531 109 L 649.777344 97.457031 L 655.851562 97.457031 L 644.695312 113.34375 L 644.695312 125.078125 L 639.351562 125.078125 L 639.351562 113.34375 Z M 628.238281 97.457031 "/>
<path style=" stroke:none;fill-rule:nonzero;fill:rgb(8.627451%,6.27451%,21.960784%);fill-opacity:1;" d="M 10.34375 38.765625 C 11.222656 38.796875 12.085938 38.480469 12.777344 37.882812 C 13.476562 37.242188 13.855469 36.277344 13.800781 35.277344 C 13.824219 34.335938 13.457031 33.429688 12.796875 32.824219 C 12.117188 32.175781 11.242188 31.835938 10.34375 31.867188 C 9.445312 31.839844 8.574219 32.179688 7.890625 32.824219 C 7.246094 33.4375 6.886719 34.339844 6.910156 35.277344 C 6.855469 36.273438 7.226562 37.234375 7.914062 37.882812 C 8.605469 38.476562 9.464844 38.789062 10.34375 38.765625 Z M 10.34375 38.765625 "/>
<path style=" stroke:none;fill-rule:nonzero;fill:rgb(8.627451%,6.27451%,21.960784%);fill-opacity:1;" d="M 17.261719 38.765625 C 18.144531 38.792969 19.011719 38.480469 19.707031 37.882812 C 20.347656 37.21875 20.710938 36.296875 20.710938 35.328125 C 20.710938 34.363281 20.347656 33.4375 19.707031 32.777344 C 19.023438 32.152344 18.152344 31.828125 17.261719 31.867188 C 16.363281 31.84375 15.484375 32.183594 14.796875 32.824219 C 14.144531 33.433594 13.78125 34.339844 13.8125 35.28125 C 13.761719 36.273438 14.132812 37.234375 14.820312 37.882812 C 15.519531 38.476562 16.378906 38.789062 17.261719 38.765625 Z M 17.261719 38.765625 "/>
<path style=" stroke:none;fill-rule:nonzero;fill:rgb(8.627451%,6.27451%,21.960784%);fill-opacity:1;" d="M 65.574219 62.9375 C 64.671875 62.910156 63.792969 63.269531 63.117188 63.941406 C 62.484375 64.582031 62.125 65.496094 62.132812 66.449219 C 62.113281 67.414062 62.484375 68.335938 63.140625 68.957031 C 63.835938 69.554688 64.695312 69.863281 65.574219 69.835938 C 66.453125 69.875 67.3125 69.5625 68.007812 68.957031 C 68.679688 68.347656 69.0625 67.421875 69.035156 66.449219 C 69.042969 65.488281 68.675781 64.574219 68.03125 63.941406 C 67.359375 63.257812 66.476562 62.898438 65.574219 62.9375 Z M 65.574219 62.9375 "/>
<path style=" stroke:none;fill-rule:nonzero;fill:rgb(8.627451%,6.27451%,21.960784%);fill-opacity:1;" d="M 72.476562 62.9375 C 71.574219 62.910156 70.695312 63.269531 70.019531 63.941406 C 69.386719 64.582031 69.03125 65.496094 69.039062 66.449219 C 69.019531 67.414062 69.386719 68.335938 70.042969 68.960938 C 70.742188 69.554688 71.601562 69.863281 72.476562 69.835938 C 73.355469 69.875 74.21875 69.5625 74.914062 68.960938 C 75.585938 68.347656 75.964844 67.421875 75.941406 66.449219 C 75.945312 65.496094 75.589844 64.582031 74.957031 63.941406 C 74.277344 63.253906 73.390625 62.894531 72.476562 62.9375 Z M 72.476562 62.9375 "/>
<path style=" stroke:none;fill-rule:nonzero;fill:rgb(8.627451%,6.27451%,21.960784%);fill-opacity:1;" d="M 176.078125 38.765625 C 176.945312 38.777344 177.785156 38.457031 178.464844 37.863281 C 179.167969 37.230469 179.550781 36.265625 179.488281 35.269531 C 179.503906 34.335938 179.144531 33.441406 178.507812 32.820312 C 177.824219 32.167969 176.9375 31.828125 176.03125 31.867188 C 175.136719 31.839844 174.261719 32.179688 173.578125 32.820312 C 172.941406 33.441406 172.585938 34.335938 172.597656 35.269531 C 172.542969 36.257812 172.914062 37.21875 173.601562 37.863281 C 174.304688 38.46875 175.179688 38.789062 176.078125 38.765625 Z M 176.078125 38.765625 "/>
<path style=" stroke:none;fill-rule:nonzero;fill:rgb(8.627451%,6.27451%,21.960784%);fill-opacity:1;" d="M 168.292969 41.472656 C 166.871094 41.902344 165.546875 42.640625 164.402344 43.640625 C 163.335938 44.582031 162.476562 45.757812 161.882812 47.09375 C 161.273438 48.542969 160.96875 50.121094 160.996094 51.710938 C 160.984375 52.746094 161.148438 53.773438 161.476562 54.746094 C 161.777344 55.648438 162.210938 56.492188 162.753906 57.253906 L 128.492188 57.253906 C 128.566406 56.855469 128.625 56.453125 128.660156 56.050781 C 128.6875 55.617188 128.6875 55.179688 128.660156 54.746094 C 128.695312 53.144531 128.433594 51.546875 127.882812 50.050781 C 127.328125 48.628906 126.515625 47.335938 125.492188 46.246094 C 124.464844 45.179688 123.261719 44.328125 121.9375 43.738281 C 120.5625 43.113281 119.082031 42.796875 117.585938 42.8125 C 116.113281 42.800781 114.652344 43.125 113.304688 43.757812 C 112.003906 44.363281 110.820312 45.226562 109.824219 46.304688 C 108.8125 47.386719 107.996094 48.65625 107.417969 50.050781 C 106.84375 51.535156 106.550781 53.125 106.566406 54.726562 C 106.566406 55.1875 106.566406 55.621094 106.566406 56.03125 C 106.59375 56.4375 106.664062 56.839844 106.769531 57.234375 L 71.320312 57.234375 L 71.320312 40.722656 L 66.171875 40.722656 L 66.171875 57.253906 L 18.523438 57.253906 L 18.523438 38.769531 L 13.28125 38.769531 L 13.28125 40.742188 L 12.558594 40.742188 C 10.753906 40.707031 8.960938 40.996094 7.242188 41.589844 C 5.800781 42.074219 4.460938 42.859375 3.300781 43.898438 C 2.246094 44.835938 1.410156 46.015625 0.855469 47.351562 C 0.273438 48.734375 -0.015625 50.234375 0.00390625 51.75 C -0.03125 53.414062 0.292969 55.070312 0.945312 56.582031 C 1.542969 57.933594 2.429688 59.117188 3.539062 60.035156 C 4.730469 60.953125 6.078125 61.625 7.503906 62.007812 C 9.15625 62.457031 10.855469 62.675781 12.558594 62.660156 L 109.585938 62.660156 C 110.605469 63.804688 111.824219 64.730469 113.175781 65.382812 C 114.558594 66.054688 116.0625 66.398438 117.585938 66.386719 C 119.132812 66.394531 120.664062 66.058594 122.085938 65.402344 C 123.488281 64.78125 124.753906 63.84375 125.789062 62.660156 L 179.496094 62.660156 L 179.496094 40.722656 L 173.328125 40.722656 C 171.625 40.703125 169.925781 40.957031 168.292969 41.472656 Z M 13.28125 57.253906 L 11.113281 57.253906 C 10.367188 57.253906 9.625 57.132812 8.910156 56.898438 C 8.238281 56.671875 7.609375 56.320312 7.058594 55.851562 C 6.449219 55.398438 5.941406 54.8125 5.558594 54.136719 C 5.214844 53.394531 5.042969 52.578125 5.058594 51.75 C 5.046875 50.925781 5.230469 50.109375 5.59375 49.382812 C 5.941406 48.699219 6.421875 48.109375 7.003906 47.644531 C 7.605469 47.171875 8.273438 46.804688 8.984375 46.5625 C 9.730469 46.285156 10.511719 46.132812 11.300781 46.105469 L 13.28125 46.105469 Z M 123.140625 57.253906 C 122.851562 58 122.417969 58.675781 121.863281 59.226562 C 121.332031 59.789062 120.703125 60.230469 120.011719 60.527344 C 119.261719 60.84375 118.464844 61.007812 117.660156 61 C 116.867188 61.007812 116.078125 60.847656 115.34375 60.527344 C 114.652344 60.207031 114.027344 59.753906 113.492188 59.1875 C 112.964844 58.621094 112.550781 57.949219 112.269531 57.214844 C 111.96875 56.425781 111.820312 55.578125 111.824219 54.726562 C 111.820312 53.871094 111.972656 53.019531 112.269531 52.222656 C 112.5625 51.496094 112.96875 50.828125 113.472656 50.25 C 114.566406 49.039062 116.082031 48.363281 117.660156 48.375 C 118.488281 48.371094 119.3125 48.539062 120.085938 48.867188 C 120.777344 49.1875 121.40625 49.640625 121.9375 50.210938 C 122.464844 50.777344 122.886719 51.445312 123.175781 52.183594 C 123.480469 52.984375 123.628906 53.84375 123.621094 54.707031 C 123.625 55.5625 123.460938 56.410156 123.140625 57.195312 Z M 174.238281 57.253906 L 168.921875 57.253906 C 168.082031 56.648438 167.386719 55.84375 166.882812 54.90625 C 166.371094 53.929688 166.109375 52.828125 166.125 51.710938 C 166.117188 50.886719 166.292969 50.074219 166.644531 49.34375 C 166.972656 48.675781 167.425781 48.082031 167.976562 47.605469 C 168.527344 47.132812 169.15625 46.769531 169.828125 46.542969 C 170.550781 46.273438 171.304688 46.128906 172.070312 46.105469 L 174.238281 46.105469 Z M 174.238281 57.253906 "/>
<path style=" stroke:none;fill-rule:nonzero;fill:rgb(8.627451%,6.27451%,21.960784%);fill-opacity:1;" d="M 169.152344 38.769531 C 170.027344 38.785156 170.878906 38.464844 171.558594 37.863281 C 172.265625 37.230469 172.648438 36.261719 172.585938 35.265625 C 172.601562 34.328125 172.230469 33.429688 171.582031 32.820312 C 170.160156 31.546875 168.121094 31.546875 166.699219 32.820312 C 166.050781 33.429688 165.679688 34.328125 165.695312 35.265625 C 165.632812 36.261719 166.015625 37.230469 166.722656 37.863281 C 167.410156 38.464844 168.269531 38.789062 169.152344 38.769531 Z M 169.152344 38.769531 "/>
<path style=" stroke:none;fill-rule:nonzero;fill:rgb(8.627451%,6.27451%,21.960784%);fill-opacity:1;" d="M 227.679688 56.523438 L 196.316406 56.523438 L 196.316406 40.972656 L 191.394531 40.972656 L 191.394531 61.015625 C 191.472656 61.96875 191.273438 62.925781 190.828125 63.761719 C 190.320312 64.386719 189.550781 64.707031 188.773438 64.613281 C 188.390625 64.640625 188.003906 64.632812 187.621094 64.597656 C 187.210938 64.53125 186.804688 64.445312 186.398438 64.335938 L 186.753906 69.476562 C 187.117188 69.597656 187.492188 69.679688 187.871094 69.71875 C 188.328125 69.785156 188.789062 69.816406 189.25 69.808594 C 191.132812 69.992188 192.996094 69.316406 194.367188 67.953125 C 195.605469 66.164062 196.230469 63.984375 196.140625 61.777344 L 232.441406 61.777344 L 232.441406 37.003906 L 234.726562 37.003906 L 234.726562 31.863281 L 227.535156 31.863281 Z M 227.679688 56.523438 "/>
<path style=" stroke:none;fill-rule:nonzero;fill:rgb(8.627451%,6.27451%,21.960784%);fill-opacity:1;" d="M 241.628906 31.863281 L 248.535156 31.863281 L 248.535156 59.484375 L 241.628906 59.484375 Z M 241.628906 31.863281 "/>
<path style=" stroke:none;fill-rule:nonzero;fill:rgb(8.627451%,6.27451%,21.960784%);fill-opacity:1;" d="M 266.824219 58.628906 C 268.269531 59.769531 270.222656 59.769531 271.667969 58.628906 C 272.363281 57.996094 272.742188 57.046875 272.691406 56.0625 C 272.75 55.097656 272.386719 54.152344 271.710938 53.523438 C 270.273438 52.261719 268.21875 52.261719 266.78125 53.523438 C 266.128906 54.132812 265.769531 55.035156 265.804688 55.972656 C 265.722656 56.984375 266.105469 57.976562 266.824219 58.628906 Z M 266.824219 58.628906 "/>
<path style=" stroke:none;fill-rule:nonzero;fill:rgb(8.627451%,6.27451%,21.960784%);fill-opacity:1;" d="M 266.820312 51.710938 C 268.265625 52.867188 270.222656 52.867188 271.671875 51.710938 C 272.363281 51.070312 272.742188 50.105469 272.691406 49.113281 C 272.726562 48.164062 272.367188 47.25 271.710938 46.628906 C 270.273438 45.355469 268.21875 45.355469 266.777344 46.628906 C 266.125 47.25 265.761719 48.164062 265.796875 49.113281 C 265.746094 50.105469 266.125 51.070312 266.820312 51.710938 Z M 266.820312 51.710938 "/>
<path style=" stroke:none;fill-rule:nonzero;fill:rgb(8.627451%,6.27451%,21.960784%);fill-opacity:1;" d="M 341.757812 62.9375 C 340.855469 62.910156 339.976562 63.25 339.289062 63.894531 C 338.628906 64.511719 338.261719 65.425781 338.289062 66.375 C 338.222656 67.378906 338.613281 68.347656 339.332031 68.972656 C 340.027344 69.558594 340.882812 69.863281 341.757812 69.839844 C 342.632812 69.855469 343.488281 69.550781 344.1875 68.972656 C 344.824219 68.3125 345.183594 67.394531 345.183594 66.433594 C 345.183594 65.472656 344.824219 64.554688 344.1875 63.894531 C 343.511719 63.261719 342.648438 62.921875 341.757812 62.9375 Z M 341.757812 62.9375 "/>
<path style=" stroke:none;fill-rule:nonzero;fill:rgb(8.627451%,6.27451%,21.960784%);fill-opacity:1;" d="M 401.769531 45.625 C 400.886719 44.660156 399.785156 43.929688 398.5625 43.503906 C 397.175781 43.042969 395.722656 42.824219 394.261719 42.851562 L 383.332031 42.851562 L 383.332031 31.863281 L 378.285156 31.863281 L 378.285156 56.609375 L 345.945312 56.609375 L 345.945312 41.007812 L 340.882812 41.007812 L 340.882812 56.609375 L 294.898438 56.609375 L 294.898438 41.007812 L 288.085938 41.007812 C 286.78125 40.996094 285.484375 41.160156 284.222656 41.492188 C 283.121094 41.761719 282.082031 42.261719 281.179688 42.960938 C 280.125 43.816406 279.308594 44.941406 278.8125 46.21875 C 278.292969 47.695312 278.046875 49.253906 278.082031 50.820312 L 278.082031 61.230469 L 271.03125 61.230469 C 269.90625 61.230469 268.789062 61.089844 267.695312 60.820312 C 266.53125 60.492188 265.410156 60.011719 264.363281 59.386719 L 262.339844 63.910156 C 263.160156 64.375 263.90625 64.785156 264.617188 65.101562 C 265.332031 65.429688 266.074219 65.679688 266.839844 65.847656 C 267.679688 66.050781 268.53125 66.1875 269.390625 66.257812 C 270.320312 66.351562 271.414062 66.386719 272.671875 66.386719 L 283.128906 66.386719 L 283.128906 50.484375 C 283.140625 49.847656 283.265625 49.214844 283.492188 48.621094 C 283.867188 47.535156 284.75 46.710938 285.84375 46.425781 C 286.398438 46.285156 286.964844 46.21875 287.539062 46.21875 L 289.851562 46.21875 L 289.851562 61.824219 L 403.867188 61.824219 L 403.867188 53.035156 C 403.878906 51.613281 403.726562 50.195312 403.410156 48.808594 C 403.148438 47.617188 402.582031 46.519531 401.769531 45.625 Z M 398.816406 56.609375 L 383.257812 56.609375 L 383.257812 47.953125 L 394.773438 47.953125 C 395.402344 47.945312 396.027344 48.085938 396.59375 48.363281 C 397.097656 48.605469 397.542969 48.960938 397.890625 49.40625 C 398.230469 49.828125 398.480469 50.324219 398.617188 50.855469 C 398.78125 51.464844 398.859375 52.089844 398.855469 52.71875 Z M 398.816406 56.609375 "/>
<path style=" stroke:none;fill-rule:nonzero;fill:rgb(8.627451%,6.27451%,21.960784%);fill-opacity:1;" d="M 387.617188 41.332031 C 388.296875 41.921875 389.136719 42.234375 390 42.21875 C 390.859375 42.238281 391.703125 41.925781 392.382812 41.332031 C 393.109375 40.730469 393.53125 39.769531 393.511719 38.753906 C 393.53125 37.804688 393.171875 36.894531 392.527344 36.273438 C 391.113281 34.996094 389.09375 34.996094 387.679688 36.273438 C 387 36.871094 386.605469 37.789062 386.613281 38.753906 C 386.558594 39.742188 386.933594 40.703125 387.617188 41.332031 Z M 387.617188 41.332031 "/>
<path style=" stroke:none;fill-rule:nonzero;fill:rgb(8.627451%,6.27451%,21.960784%);fill-opacity:1;" d="M 462.574219 62.9375 C 461.671875 62.90625 460.789062 63.246094 460.105469 63.894531 C 459.445312 64.511719 459.078125 65.425781 459.101562 66.375 C 459.039062 67.378906 459.429688 68.347656 460.148438 68.972656 C 460.839844 69.558594 461.699219 69.863281 462.574219 69.839844 C 463.449219 69.855469 464.304688 69.550781 465 68.972656 C 465.640625 68.3125 466 67.394531 466 66.433594 C 466 65.472656 465.640625 64.554688 465 63.894531 C 464.324219 63.265625 463.460938 62.925781 462.574219 62.9375 Z M 462.574219 62.9375 "/>
<path style=" stroke:none;fill-rule:nonzero;fill:rgb(8.627451%,6.27451%,21.960784%);fill-opacity:1;" d="M 462.546875 42.222656 L 457.550781 42.222656 L 457.550781 57.203125 L 425.074219 57.203125 L 425.074219 42.222656 L 419.429688 42.222656 C 417.761719 42.203125 416.097656 42.441406 414.503906 42.917969 C 413.09375 43.316406 411.773438 43.984375 410.625 44.886719 C 409.601562 45.730469 408.789062 46.792969 408.242188 47.996094 C 407.613281 49.300781 407.296875 50.734375 407.320312 52.179688 C 407.28125 53.746094 407.609375 55.300781 408.277344 56.71875 C 408.875 57.949219 409.769531 59.019531 410.875 59.832031 C 412.054688 60.671875 413.382812 61.277344 414.792969 61.617188 C 416.363281 62 417.972656 62.1875 419.589844 62.171875 L 420.167969 62.171875 C 420.117188 62.699219 419.964844 63.207031 419.71875 63.675781 C 419.5 64.035156 419.1875 64.332031 418.816406 64.53125 C 418.398438 64.75 417.945312 64.882812 417.480469 64.925781 C 416.878906 64.957031 416.277344 64.957031 415.675781 64.925781 C 414.835938 64.925781 413.996094 64.851562 413.167969 64.710938 C 412.25 64.550781 411.34375 64.324219 410.460938 64.03125 L 410.820312 69.039062 L 412.285156 69.429688 C 412.714844 69.429688 413.113281 69.609375 413.511719 69.664062 C 413.90625 69.714844 414.304688 69.789062 414.71875 69.824219 C 415.132812 69.859375 415.550781 69.824219 416.035156 69.824219 C 417.417969 69.855469 418.792969 69.671875 420.113281 69.269531 C 421.132812 68.941406 422.070312 68.398438 422.855469 67.679688 C 423.566406 67.027344 424.121094 66.226562 424.480469 65.335938 C 424.855469 64.3125 425.089844 63.242188 425.164062 62.15625 L 462.546875 62.15625 Z M 420.203125 57.203125 L 418.09375 57.203125 C 417.324219 57.207031 416.558594 57.101562 415.820312 56.882812 C 415.160156 56.683594 414.546875 56.363281 414.015625 55.933594 C 413.492188 55.503906 413.066406 54.96875 412.769531 54.359375 C 412.46875 53.671875 412.324219 52.929688 412.335938 52.179688 C 412.324219 51.464844 412.492188 50.757812 412.824219 50.125 C 413.132812 49.511719 413.570312 48.976562 414.105469 48.550781 C 414.640625 48.101562 415.25 47.757812 415.910156 47.53125 C 416.609375 47.296875 417.339844 47.175781 418.074219 47.171875 L 420.1875 47.171875 Z M 420.203125 57.203125 "/>
<path style=" stroke:none;fill-rule:nonzero;fill:rgb(8.627451%,6.27451%,21.960784%);fill-opacity:1;" d="M 469.453125 38.769531 L 476.355469 38.769531 L 476.355469 66.386719 L 469.453125 66.386719 Z M 469.453125 38.769531 "/>
<path style=" stroke:none;fill-rule:nonzero;fill:rgb(8.627451%,6.27451%,21.960784%);fill-opacity:1;" d="M 473.96875 30.773438 C 474.554688 30.371094 475.3125 30.175781 476.074219 30.242188 L 478.253906 30.242188 L 478.253906 28.421875 L 475.75 28.421875 C 474.101562 28.34375 472.476562 28.75 471.164062 29.566406 C 469.914062 30.585938 469.296875 32.015625 469.484375 33.453125 L 469.484375 35.316406 L 479.808594 35.316406 L 479.808594 32.289062 L 473.46875 32.289062 C 473.40625 31.75 473.585938 31.210938 473.96875 30.773438 Z M 473.96875 30.773438 "/>
<path style=" stroke:none;fill-rule:nonzero;fill:rgb(8.627451%,6.27451%,21.960784%);fill-opacity:1;" d="M 510.863281 38.765625 C 511.742188 38.792969 512.601562 38.480469 513.296875 37.882812 C 513.988281 37.238281 514.367188 36.273438 514.324219 35.277344 C 514.34375 34.339844 513.984375 33.4375 513.339844 32.820312 C 511.902344 31.542969 509.847656 31.542969 508.410156 32.820312 C 507.757812 33.433594 507.394531 34.335938 507.425781 35.277344 C 507.375 36.269531 507.746094 37.234375 508.429688 37.882812 C 509.125 38.480469 509.984375 38.792969 510.863281 38.765625 Z M 510.863281 38.765625 "/>
<path style=" stroke:none;fill-rule:nonzero;fill:rgb(8.627451%,6.27451%,21.960784%);fill-opacity:1;" d="M 497.054688 38.765625 C 497.9375 38.792969 498.796875 38.480469 499.488281 37.882812 C 500.179688 37.234375 500.558594 36.273438 500.515625 35.277344 C 500.539062 34.332031 500.167969 33.425781 499.511719 32.820312 C 498.078125 31.546875 496.035156 31.546875 494.601562 32.820312 C 493.949219 33.429688 493.585938 34.335938 493.621094 35.277344 C 493.566406 36.269531 493.9375 37.234375 494.625 37.882812 C 495.316406 38.480469 496.175781 38.792969 497.054688 38.765625 Z M 497.054688 38.765625 "/>
<path style=" stroke:none;fill-rule:nonzero;fill:rgb(8.627451%,6.27451%,21.960784%);fill-opacity:1;" d="M 559.199219 36.152344 L 552.734375 36.152344 L 552.734375 35.195312 C 552.679688 34.730469 552.875 34.265625 553.28125 33.90625 C 553.824219 33.558594 554.535156 33.390625 555.246094 33.445312 L 557.613281 33.445312 L 557.613281 31.871094 L 554.796875 31.871094 C 553.234375 31.808594 551.691406 32.160156 550.4375 32.859375 C 549.273438 33.75 548.699219 34.984375 548.875 36.222656 L 548.875 38.769531 L 559.105469 38.769531 Z M 559.199219 36.152344 "/>
<path style=" stroke:none;fill-rule:nonzero;fill:rgb(8.627451%,6.27451%,21.960784%);fill-opacity:1;" d="M 590.253906 62.9375 C 589.351562 62.910156 588.472656 63.269531 587.796875 63.941406 C 587.167969 64.582031 586.808594 65.496094 586.816406 66.453125 C 586.792969 67.421875 587.171875 68.351562 587.84375 68.964844 C 589.292969 70.132812 591.242188 70.132812 592.691406 68.964844 C 593.363281 68.351562 593.742188 67.421875 593.71875 66.453125 C 593.726562 65.492188 593.359375 64.574219 592.710938 63.941406 C 592.042969 63.257812 591.160156 62.898438 590.253906 62.9375 Z M 590.253906 62.9375 "/>
<path style=" stroke:none;fill-rule:nonzero;fill:rgb(8.627451%,6.27451%,21.960784%);fill-opacity:1;" d="M 600.609375 62.9375 C 599.707031 62.910156 598.828125 63.269531 598.152344 63.941406 C 597.523438 64.582031 597.164062 65.496094 597.171875 66.449219 C 597.152344 67.414062 597.519531 68.335938 598.175781 68.960938 C 598.875 69.554688 599.734375 69.863281 600.609375 69.835938 C 601.488281 69.875 602.351562 69.5625 603.046875 68.960938 C 603.71875 68.347656 604.097656 67.421875 604.074219 66.449219 C 604.082031 65.496094 603.722656 64.582031 603.089844 63.941406 C 602.414062 63.253906 601.523438 62.894531 600.609375 62.9375 Z M 600.609375 62.9375 "/>
<path style=" stroke:none;fill-rule:nonzero;fill:rgb(8.627451%,6.27451%,21.960784%);fill-opacity:1;" d="M 655.097656 49.363281 C 654.636719 47.597656 653.855469 45.929688 652.785156 44.429688 C 652.226562 43.632812 651.59375 42.886719 650.902344 42.199219 C 650.15625 41.488281 649.316406 40.878906 648.402344 40.382812 C 647.425781 39.859375 646.382812 39.464844 645.296875 39.203125 C 644.066406 38.902344 642.804688 38.757812 641.535156 38.769531 C 639.625 38.777344 637.722656 39.042969 635.890625 39.566406 C 634.03125 40.082031 632.222656 40.761719 630.492188 41.597656 L 632.261719 46.152344 C 633.398438 45.5625 634.570312 45.046875 635.777344 44.609375 C 637.175781 44.09375 638.664062 43.835938 640.160156 43.847656 C 641.957031 43.796875 643.738281 44.117188 645.390625 44.792969 C 646.75 45.398438 647.902344 46.359375 648.722656 47.566406 C 649.382812 48.539062 649.882812 49.605469 650.207031 50.726562 C 650.523438 51.972656 650.675781 53.25 650.660156 54.535156 C 650.660156 55.042969 650.660156 55.570312 650.660156 56.148438 C 650.617188 56.757812 650.542969 57.363281 650.433594 57.964844 L 647.046875 57.964844 C 647.136719 57.5625 647.207031 57.15625 647.253906 56.746094 C 647.28125 56.277344 647.28125 55.804688 647.253906 55.332031 C 647.269531 54.175781 647.074219 53.027344 646.671875 51.941406 C 646.328125 50.976562 645.773438 50.089844 645.054688 49.347656 C 644.359375 48.621094 643.511719 48.046875 642.570312 47.660156 C 641.585938 47.269531 640.53125 47.070312 639.464844 47.078125 C 637.351562 46.964844 635.292969 47.746094 633.824219 49.21875 C 632.34375 50.9375 631.609375 53.140625 631.773438 55.367188 C 631.773438 55.835938 631.808594 56.304688 631.886719 56.765625 C 631.886719 57.21875 632.035156 57.636719 632.109375 57.964844 L 597.121094 57.964844 L 597.121094 42.742188 L 591.914062 42.742188 L 591.914062 57.945312 L 554.421875 57.945312 L 554.421875 42.742188 L 549.191406 42.742188 L 549.191406 57.945312 L 508.882812 57.945312 L 508.882812 40.945312 L 503.652344 40.945312 L 503.652344 42.761719 L 502.917969 42.761719 C 501.085938 42.730469 499.261719 42.992188 497.519531 43.539062 C 496.054688 43.988281 494.691406 44.710938 493.511719 45.664062 C 492.441406 46.535156 491.589844 47.625 491.011719 48.855469 C 490.4375 50.132812 490.148438 51.511719 490.164062 52.902344 C 490.132812 54.433594 490.453125 55.949219 491.105469 57.347656 C 491.722656 58.585938 492.632812 59.675781 493.757812 60.519531 C 494.964844 61.371094 496.332031 61.984375 497.785156 62.335938 C 499.460938 62.75 501.1875 62.949219 502.917969 62.933594 L 654.457031 62.933594 C 654.664062 62.375 654.835938 61.808594 654.964844 61.230469 C 655.136719 60.59375 655.265625 59.941406 655.398438 59.269531 C 655.53125 58.597656 655.625 57.925781 655.71875 57.253906 C 655.796875 56.625 655.839844 55.988281 655.851562 55.351562 C 655.867188 53.332031 655.613281 51.320312 655.097656 49.363281 Z M 503.652344 57.945312 L 501.375 57.945312 C 500.617188 57.945312 499.863281 57.835938 499.136719 57.617188 C 498.453125 57.410156 497.816406 57.085938 497.257812 56.65625 C 496.707031 56.222656 496.253906 55.683594 495.921875 55.078125 C 495.570312 54.398438 495.398438 53.644531 495.414062 52.882812 C 495.402344 52.125 495.589844 51.375 495.957031 50.707031 C 496.308594 50.082031 496.796875 49.535156 497.386719 49.109375 C 498 48.675781 498.679688 48.335938 499.402344 48.113281 C 500.121094 47.871094 500.875 47.730469 501.640625 47.695312 L 503.652344 47.695312 Z M 642.476562 56.746094 C 642.476562 57.203125 642.363281 57.617188 642.304688 57.945312 L 636.664062 57.945312 C 636.664062 57.617188 636.664062 57.203125 636.492188 56.746094 C 636.433594 56.246094 636.402344 55.746094 636.398438 55.242188 C 636.351562 54.285156 636.613281 53.339844 637.152344 52.539062 C 637.703125 51.855469 638.570312 51.480469 639.464844 51.539062 C 640.359375 51.503906 641.214844 51.871094 641.78125 52.539062 C 642.363281 53.324219 642.648438 54.277344 642.589844 55.242188 C 642.589844 55.753906 642.554688 56.261719 642.476562 56.765625 Z M 642.476562 56.746094 "/>
</g>
</svg>
